%!PS-Adobe-3.0 EPSF-3.0
%%Creator: MATLAB, The MathWorks, Inc. Version 8.2.0.701 (R2013b). Operating System: Linux 3.8.0-44-generic #66~precise1-Ubuntu SMP Tue Jul 15 04:01:04 UTC 2014 x86_64.
%%Title: /media/Transcend/DATA/drafts/2015/ARCH2015_Cora/figures/bouncingBall_final_b.eps
%%CreationDate: 03/13/2015  14:41:59
%%DocumentNeededFonts: Helvetica
%%DocumentProcessColors: Cyan Magenta Yellow Black
%%LanguageLevel: 2
%%Pages: 1
%%BoundingBox:   107   296   503   495
%%EndComments

%%BeginProlog
% MathWorks dictionary
/MathWorks 160 dict begin
% definition operators
/bdef {bind def} bind def
/ldef {load def} bind def
/xdef {exch def} bdef
/xstore {exch store} bdef
% operator abbreviations
/c  /clip ldef
/cc /concat ldef
/cp /closepath ldef
/gr /grestore ldef
/gs /gsave ldef
/mt /moveto ldef
/np /newpath ldef
/cm /currentmatrix ldef
/sm /setmatrix ldef
/rm /rmoveto ldef
/rl /rlineto ldef
/s {show newpath} bdef
/sc {setcmykcolor} bdef
/sr /setrgbcolor ldef
/sg /setgray ldef
/w /setlinewidth ldef
/j /setlinejoin ldef
/cap /setlinecap ldef
/rc {rectclip} bdef
/rf {rectfill} bdef
% page state control
/pgsv () def
/bpage {/pgsv save def} bdef
/epage {pgsv restore} bdef
/bplot /gsave ldef
/eplot {stroke grestore} bdef
% orientation switch
/portraitMode 0 def /landscapeMode 1 def /rotateMode 2 def
% coordinate system mappings
/dpi2point 0 def
% font control
/FontSize 0 def
/FMS {/FontSize xstore findfont [FontSize 0 0 FontSize neg 0 0]
  makefont setfont} bdef
/reencode {exch dup where {pop load} {pop StandardEncoding} ifelse
  exch dup 3 1 roll findfont dup length dict begin
  { 1 index /FID ne {def}{pop pop} ifelse } forall
  /Encoding exch def currentdict end definefont pop} bdef
/isroman {findfont /CharStrings get /Agrave known} bdef
/FMSR {3 1 roll 1 index dup isroman {reencode} {pop pop} ifelse
  exch FMS} bdef
/csm {1 dpi2point div -1 dpi2point div scale neg translate
 dup landscapeMode eq {pop -90 rotate}
  {rotateMode eq {90 rotate} if} ifelse} bdef
% line types: solid, dotted, dashed, dotdash
/SO { [] 0 setdash } bdef
/DO { [.5 dpi2point mul 4 dpi2point mul] 0 setdash } bdef
/DA { [6 dpi2point mul] 0 setdash } bdef
/DD { [.5 dpi2point mul 4 dpi2point mul 6 dpi2point mul 4
  dpi2point mul] 0 setdash } bdef
% macros for lines and objects
/L {lineto stroke} bdef
/MP {3 1 roll moveto 1 sub {rlineto} repeat} bdef
/AP {{rlineto} repeat} bdef
/PDlw -1 def
/W {/PDlw currentlinewidth def setlinewidth} def
/PP {closepath eofill} bdef
/DP {closepath stroke} bdef
/MR {4 -2 roll moveto dup  0 exch rlineto exch 0 rlineto
  neg 0 exch rlineto closepath} bdef
/FR {MR stroke} bdef
/PR {MR fill} bdef
/L1i {{currentfile picstr readhexstring pop} image} bdef
/tMatrix matrix def
/MakeOval {newpath tMatrix currentmatrix pop translate scale
0 0 1 0 360 arc tMatrix setmatrix} bdef
/FO {MakeOval stroke} bdef
/PO {MakeOval fill} bdef
/PD {currentlinewidth 2 div 0 360 arc fill
   PDlw -1 eq not {PDlw w /PDlw -1 def} if} def
/FA {newpath tMatrix currentmatrix pop translate scale
  0 0 1 5 -2 roll arc tMatrix setmatrix stroke} bdef
/PA {newpath tMatrix currentmatrix pop	translate 0 0 moveto scale
  0 0 1 5 -2 roll arc closepath tMatrix setmatrix fill} bdef
/FAn {newpath tMatrix currentmatrix pop translate scale
  0 0 1 5 -2 roll arcn tMatrix setmatrix stroke} bdef
/PAn {newpath tMatrix currentmatrix pop translate 0 0 moveto scale
  0 0 1 5 -2 roll arcn closepath tMatrix setmatrix fill} bdef
/vradius 0 def /hradius 0 def /lry 0 def
/lrx 0 def /uly 0 def /ulx 0 def /rad 0 def
/MRR {/vradius xdef /hradius xdef /lry xdef /lrx xdef /uly xdef
  /ulx xdef newpath tMatrix currentmatrix pop ulx hradius add uly
  vradius add translate hradius vradius scale 0 0 1 180 270 arc 
  tMatrix setmatrix lrx hradius sub uly vradius add translate
  hradius vradius scale 0 0 1 270 360 arc tMatrix setmatrix
  lrx hradius sub lry vradius sub translate hradius vradius scale
  0 0 1 0 90 arc tMatrix setmatrix ulx hradius add lry vradius sub
  translate hradius vradius scale 0 0 1 90 180 arc tMatrix setmatrix
  closepath} bdef
/FRR {MRR stroke } bdef
/PRR {MRR fill } bdef
/MlrRR {/lry xdef /lrx xdef /uly xdef /ulx xdef /rad lry uly sub 2 div def
  newpath tMatrix currentmatrix pop ulx rad add uly rad add translate
  rad rad scale 0 0 1 90 270 arc tMatrix setmatrix lrx rad sub lry rad
  sub translate rad rad scale 0 0 1 270 90 arc tMatrix setmatrix
  closepath} bdef
/FlrRR {MlrRR stroke } bdef
/PlrRR {MlrRR fill } bdef
/MtbRR {/lry xdef /lrx xdef /uly xdef /ulx xdef /rad lrx ulx sub 2 div def
  newpath tMatrix currentmatrix pop ulx rad add uly rad add translate
  rad rad scale 0 0 1 180 360 arc tMatrix setmatrix lrx rad sub lry rad
  sub translate rad rad scale 0 0 1 0 180 arc tMatrix setmatrix
  closepath} bdef
/FtbRR {MtbRR stroke } bdef
/PtbRR {MtbRR fill } bdef
/stri 6 array def /dtri 6 array def
/smat 6 array def /dmat 6 array def
/tmat1 6 array def /tmat2 6 array def /dif 3 array def
/asub {/ind2 exch def /ind1 exch def dup dup
  ind1 get exch ind2 get sub exch } bdef
/tri_to_matrix {
  2 0 asub 3 1 asub 4 0 asub 5 1 asub
  dup 0 get exch 1 get 7 -1 roll astore } bdef
/compute_transform {
  dmat dtri tri_to_matrix tmat1 invertmatrix 
  smat stri tri_to_matrix tmat2 concatmatrix } bdef
/ds {stri astore pop} bdef
/dt {dtri astore pop} bdef
/db {2 copy /cols xdef /rows xdef mul dup 3 mul string
  currentfile 
  3 index 0 eq {/ASCIIHexDecode filter}
  {/ASCII85Decode filter 3 index 2 eq {/RunLengthDecode filter} if }
  ifelse exch readstring pop
  dup 0 3 index getinterval /rbmap xdef
  dup 2 index dup getinterval /gbmap xdef
  1 index dup 2 mul exch getinterval /bbmap xdef pop pop}bdef
/it {gs np dtri aload pop moveto lineto lineto cp c
  cols rows 8 compute_transform 
  rbmap gbmap bbmap true 3 colorimage gr}bdef
/il {newpath moveto lineto stroke}bdef
currentdict end def
%%EndProlog

%%BeginSetup
MathWorks begin

0 cap

end
%%EndSetup

%%Page: 1 1
%%BeginPageSetup
%%PageBoundingBox:   107   296   503   495
MathWorks begin
bpage
%%EndPageSetup

%%BeginObject: obj1
bplot

/dpi2point 12 def
portraitMode 1284 5940 csm

    0     0  4762  2381 rc
85 dict begin %Colortable dictionary
/c0 { 0.000000 0.000000 0.000000 sr} bdef
/c1 { 1.000000 1.000000 1.000000 sr} bdef
/c2 { 0.900000 0.000000 0.000000 sr} bdef
/c3 { 0.000000 0.820000 0.000000 sr} bdef
/c4 { 0.000000 0.000000 0.800000 sr} bdef
/c5 { 0.910000 0.820000 0.320000 sr} bdef
/c6 { 1.000000 0.260000 0.820000 sr} bdef
/c7 { 0.000000 0.820000 0.820000 sr} bdef
c0
1 j
1 sg
   0    0 4763 2382 rf
6 w
0 1931 3692 0 0 -1931 618 2110 4 MP
PP
-3692 0 0 1931 3692 0 0 -1931 618 2110 5 MP stroke
4 w
DO
SO
6 w
0 sg
 618 2110 mt 4310 2110 L
 618 2110 mt  618  179 L
 618 2110 mt  618 2073 L
%%IncludeResource: font Helvetica
/Helvetica /ISOLatin1Encoding 96 FMSR

 496 2233 mt 
(-0.2) s
1146 2110 mt 1146 2073 L
1120 2233 mt 
(0) s
1673 2110 mt 1673 2073 L
1607 2233 mt 
(0.2) s
2200 2110 mt 2200 2073 L
2134 2233 mt 
(0.4) s
2728 2110 mt 2728 2073 L
2662 2233 mt 
(0.6) s
3255 2110 mt 3255 2073 L
3189 2233 mt 
(0.8) s
3782 2110 mt 3782 2073 L
3756 2233 mt 
(1) s
4310 2110 mt 4310 2073 L
4244 2233 mt 
(1.2) s
 618 2110 mt  655 2110 L
 395 2145 mt 
(-1.5) s
 618 1788 mt  655 1788 L
 475 1823 mt 
(-1) s
 618 1466 mt  655 1466 L
 395 1501 mt 
(-0.5) s
 618 1144 mt  655 1144 L
 531 1179 mt 
(0) s
 618  822 mt  655  822 L
 451  857 mt 
(0.5) s
 618  500 mt  655  500 L
 531  535 mt 
(1) s
 618  179 mt  655  179 L
 451  214 mt 
(1.5) s
gs 618 179 3693 1932 rc
/c8 { 0.000000 0.000000 1.000000 sr} bdef
c8
-9 96 -271 0 9 -96 271 0 3641 1208 5 MP stroke
-271 0 30 -97 271 0 -30 97 3654 1144 5 MP stroke
-49 97 -271 0 49 -97 271 0 3601 1273 5 MP stroke
-70 97 -271 0 70 -97 271 0 3571 1305 5 MP stroke
-89 96 -271 0 89 -96 271 0 3535 1337 5 MP stroke
-109 96 -271 0 109 -96 271 0 3492 1369 5 MP stroke
-128 96 -271 0 128 -96 271 0 3443 1401 5 MP stroke
-148 97 -271 0 148 -97 271 0 3387 1434 5 MP stroke
-168 97 -271 0 168 -97 271 0 3324 1466 5 MP stroke
-188 97 -271 0 188 -97 271 0 3255 1498 5 MP stroke
-208 96 -271 0 208 -96 271 0 3179 1530 5 MP stroke
-227 96 -271 0 227 -96 271 0 3097 1562 5 MP stroke
-247 97 -271 0 247 -97 271 0 3008 1595 5 MP stroke
-267 97 -271 0 267 -97 271 0 2912 1627 5 MP stroke
-287 97 -271 0 287 -97 271 0 2810 1659 5 MP stroke
-307 96 -271 0 307 -96 271 0 2701 1691 5 MP stroke
-326 96 -271 0 326 -96 271 0 2586 1723 5 MP stroke
-346 96 -271 0 346 -96 271 0 2464 1755 5 MP stroke
-366 97 -271 0 365 -97 272 0 2335 1788 5 MP stroke
-386 97 -271 0 386 -97 271 0 2200 1820 5 MP stroke
-405 97 -271 0 405 -97 271 0 2059 1852 5 MP stroke
426 -96 271 0 -425 96 -272 0 2607 1788 5 MP stroke
444 -96 272 0 -445 96 -271 0 2471 1820 5 MP stroke
465 -97 271 0 -465 97 -271 0 2330 1852 5 MP stroke
484 -97 271 0 -484 97 -271 0 2181 1884 5 MP stroke
505 -97 271 0 -504 97 -272 0 2027 1916 5 MP stroke
-448 82 -271 0 719 -82 1146 2031 4 MP stroke
-280 50 -271 0 551 -50 1146 2031 4 MP stroke
-105 18 -271 0 376 -18 1146 2031 4 MP stroke
-195 0 195 -32 0 32 1146 2045 4 MP stroke
-7 0 7 -2 0 2 1146 2077 4 MP stroke
4 0 133 31 0 37 -4 0 -137 -32 4 -36 1283 511 7 MP stroke
4 0 130 32 -11 36 -5 0 -130 -32 12 -36 1409 543 7 MP stroke
19 -36 4 0 124 33 -19 36 -4 0 -124 -33 1548 540 7 MP stroke
26 -36 4 0 117 32 -26 36 -4 0 -117 -32 1668 572 7 MP stroke
33 -36 5 0 110 32 -33 36 -5 0 -110 -32 1782 604 7 MP stroke
40 -36 5 0 103 32 -40 36 -5 0 -103 -32 1889 636 7 MP stroke
48 -36 5 0 97 32 -48 36 -5 0 -97 -32 1990 668 7 MP stroke
55 -36 5 0 90 33 -55 36 -5 0 -90 -33 2084 701 7 MP stroke
63 -36 5 0 83 32 -62 36 -5 0 -84 -32 2172 733 7 MP stroke
-4 0 -77 -32 70 -36 4 0 77 32 -70 36 2171 733 7 MP stroke
-4 0 -71 -32 78 -36 4 0 71 32 -78 36 2252 765 7 MP stroke
-4 0 -65 -32 85 -36 5 0 64 32 -85 36 2326 797 7 MP stroke
-4 0 -58 -33 92 -36 5 0 57 33 -92 36 2394 829 7 MP stroke
-4 0 -51 -32 99 -36 5 0 51 32 -100 36 2455 862 7 MP stroke
-5 0 -44 -32 107 -36 4 0 45 32 -107 36 2509 894 7 MP stroke
-5 0 -38 -32 115 -36 4 0 38 32 -114 36 2557 926 7 MP stroke
-4 0 -31 -32 121 -36 5 0 31 32 -122 36 2599 958 7 MP stroke
5 0 24 32 -129 36 -4 0 -25 -32 129 -36 2534 1058 7 MP stroke
5 0 18 33 -137 36 -4 0 -18 -33 136 -36 2548 1091 7 MP stroke
4 0 11 32 -143 36 -5 0 -11 -32 144 -36 2555 1123 7 MP stroke
4 0 5 32 -151 36 -5 0 -5 -32 152 -36 2556 1155 7 MP stroke
5 0 -2 32 -159 36 -4 0 2 -32 158 -36 2551 1187 7 MP stroke
5 0 -9 32 -166 36 -4 0 8 -32 166 -36 2539 1219 7 MP stroke
4 0 -15 33 -173 36 -4 0 15 -33 173 -36 2520 1252 7 MP stroke
5 0 -22 32 -180 36 -5 0 22 -32 180 -36 2495 1284 7 MP stroke
5 0 -29 32 -188 36 -4 0 28 -32 188 -36 2463 1316 7 MP stroke
4 0 -35 32 -195 36 -5 0 35 -32 196 -36 2424 1348 7 MP stroke
4 0 -41 32 -203 36 -4 0 41 -32 203 -36 2379 1380 7 MP stroke
5 0 -48 32 -210 36 -5 0 48 -32 210 -36 2328 1412 7 MP stroke
4 0 -54 33 -218 36 -4 0 54 -33 218 -36 2269 1445 7 MP stroke
61 -32 225 -36 4 0 -61 32 -225 36 -4 0 2490 1409 7 MP stroke
68 -32 232 -36 5 0 -68 32 -232 36 -5 0 2433 1441 7 MP stroke
74 -32 240 -36 5 0 -75 32 -239 36 -5 0 2369 1473 7 MP stroke
-81 32 -247 36 -4 0 81 -32 247 -36 4 0 1966 1573 7 MP stroke
-87 33 -254 36 -5 0 88 -33 254 -36 4 0 1875 1606 7 MP stroke
-94 32 -262 36 -4 0 94 -32 262 -36 4 0 1777 1638 7 MP stroke
269 -36 5 0 -101 32 -269 36 -5 0 101 -32 1946 1634 7 MP stroke
276 -36 5 0 -108 32 -276 36 -5 0 108 -32 1842 1666 7 MP stroke
284 -36 4 0 -114 32 -283 36 -5 0 114 -32 1732 1698 7 MP stroke
291 -36 4 0 -120 32 -291 36 -5 0 121 -32 1615 1730 7 MP stroke
127 -33 299 -36 4 0 -127 33 -298 36 -5 0 1619 1730 7 MP stroke
134 -32 216 -25 0 12 -39 9 -306 36 -5 0 1496 1763 7 MP stroke
141 -32 79 -9 0 16 -215 25 -5 0 1366 1795 6 MP stroke
-5 0 83 -18 0 9 -78 9 1224 1827 5 MP stroke
3 -28 4 0 98 31 0 29 -3 0 -102 -32 1251 650 7 MP stroke
9 -28 3 0 95 32 -8 28 -4 0 -95 -32 1349 682 7 MP stroke
14 -27 4 0 88 32 -14 28 -4 0 -88 -33 1440 715 7 MP stroke
20 -28 4 0 82 33 -20 27 -4 0 -82 -32 1525 747 7 MP stroke
26 -28 4 0 75 32 -26 28 -4 0 -75 -32 1603 779 7 MP stroke
31 -28 4 0 68 32 -31 28 -4 0 -68 -32 1674 811 7 MP stroke
37 -28 4 0 62 32 -37 28 -4 0 -62 -32 1739 843 7 MP stroke
42 -27 4 0 56 32 -43 28 -4 0 -55 -33 1797 876 7 MP stroke
48 -28 4 0 49 33 -49 27 -3 0 -49 -32 1849 908 7 MP stroke
54 -28 4 0 42 32 -54 28 -4 0 -42 -32 1894 940 7 MP stroke
-4 0 -36 -32 60 -28 4 0 36 32 -60 28 1893 940 7 MP stroke
-4 0 -29 -32 66 -28 4 0 29 32 -66 28 1932 972 7 MP stroke
-3 0 -23 -32 71 -28 4 0 23 32 -72 28 1964 1004 7 MP stroke
4 0 16 32 -77 28 -4 0 -16 -33 77 -27 1932 1096 7 MP stroke
4 0 9 33 -83 27 -3 0 -10 -32 83 -28 1938 1129 7 MP stroke
4 0 2 32 -88 28 -4 0 -2 -32 88 -28 1938 1161 7 MP stroke
4 0 -4 32 -94 28 -4 0 4 -32 94 -28 1931 1193 7 MP stroke
4 0 -11 32 -99 28 -4 0 10 -32 100 -28 1918 1225 7 MP stroke
4 0 -17 32 -106 28 -3 0 17 -33 105 -27 1898 1257 7 MP stroke
23 -32 112 -28 3 0 -23 33 -112 27 -3 0 2006 1230 7 MP stroke
30 -32 117 -28 3 0 -30 32 -117 28 -3 0 1985 1262 7 MP stroke
37 -32 122 -28 4 0 -37 32 -122 28 -4 0 1958 1294 7 MP stroke
-43 32 -128 28 -4 0 43 -32 129 -28 3 0 1749 1386 7 MP stroke
-50 32 -134 28 -3 0 50 -32 134 -28 3 0 1696 1418 7 MP stroke
-57 33 -140 28 -3 0 56 -33 140 -28 4 0 1636 1451 7 MP stroke
145 -28 4 0 -63 32 -146 28 -3 0 63 -32 1719 1455 7 MP stroke
151 -28 4 0 -70 32 -151 28 -4 0 70 -32 1652 1487 7 MP stroke
157 -28 4 0 -77 32 -156 28 -4 0 76 -32 1579 1519 7 MP stroke
163 -28 4 0 -83 32 -163 28 -4 0 83 -32 1499 1551 7 MP stroke
168 -27 4 0 -90 32 -168 28 -3 0 89 -33 1412 1584 7 MP stroke
96 -32 173 -27 0 1 -91 31 -174 27 -4 0 1415 1584 7 MP stroke
102 -32 73 -11 0 17 -172 26 -3 0 1321 1616 6 MP stroke
-4 0 76 -22 0 11 -72 11 1218 1648 5 MP stroke
2 -21 3 0 73 32 0 22 -3 0 -75 -33 1224 782 7 MP stroke
6 -21 3 0 69 32 -6 21 -3 0 -69 -32 1295 814 7 MP stroke
10 -21 3 0 63 32 -11 21 -3 0 -62 -32 1359 846 7 MP stroke
1 sg
0 64 -264 0 0 -64 264 0 3650 1176 5 MP
PP
0 sg
0 0 0 64 -264 0 0 -64 264 0 3650 1176 6 MP stroke
-84 14 -82 14 -82 14 -80 15 -428 80 -387 81 -346 80 -304 80 
-263 81 -222 80 -181 81 -140 80 -55 41 -44 40 -34 41 -23 40 
-4 8 -3 8 -2 8 -3 8 0 4 -1 1 0 2 3914 1176 24 MP stroke
4 36 13 36 20 36 29 36 64 58 85 58 106 57 128 58 
149 58 170 58 192 58 213 58 73 19 75 18 77 19 80 18 
16 4 16 4 16 4 17 3 3 1 3 1 4 1 3 0 
1 0 1 1 1 0 1146 444 28 MP stroke
-124 28 -119 29 -114 28 -109 29 -145 40 -135 41 -125 40 -115 41 
-104 40 -93 40 -83 41 -73 40 -63 41 -52 40 -41 41 -31 40 
-12 20 -9 20 -7 21 -3 20 -1 4 0 4 -1 4 0 8 
2705 1144 25 MP stroke
1 10 1 11 1 10 3 11 8 23 11 23 14 22 18 23 
21 23 24 23 28 23 31 23 35 23 38 23 41 23 45 23 
48 23 51 23 54 23 58 23 62 22 64 23 68 23 72 23 
15 5 16 5 17 5 16 5 3 1 3 1 4 1 3 1 
1 0 1 1 1 0 1146 619 36 MP stroke
-12 5 -12 4 -11 5 -12 5 -23 10 -22 9 -22 10 -21 10 
-20 10 -20 10 -20 9 -18 10 -18 10 -18 10 -17 10 -16 9 
-16 10 -15 10 -14 10 -14 10 -13 10 -13 9 -12 10 -11 10 
-11 10 -10 10 -9 9 -9 10 -9 10 -7 10 -7 10 -7 9 
-6 10 -5 10 -4 10 -4 10 -4 9 -3 10 -2 10 -1 10 
-1 4 0 4 -1 4 0 8 2023 1144 45 MP stroke
-84 14 -82 14 -82 14 -80 15 -428 80 -387 81 -346 80 -304 80 
-263 81 -222 80 -181 81 -140 80 -55 41 -44 40 -34 41 -23 40 
-4 8 -3 8 -2 8 -3 8 0 4 -1 1 0 2 3914 1176 24 MP stroke
4 36 13 36 20 36 29 36 64 58 85 58 106 57 128 58 
149 58 170 58 192 58 213 58 73 19 75 18 77 19 80 18 
16 4 16 4 16 4 17 3 3 1 3 1 4 1 3 0 
1 0 1 1 1 0 1146 444 28 MP stroke
-124 28 -119 29 -114 28 -109 29 -145 40 -135 41 -125 40 -115 41 
-104 40 -93 40 -83 41 -73 40 -63 41 -52 40 -41 41 -31 40 
-12 20 -9 20 -7 21 -3 20 -1 4 0 4 -1 4 0 8 
2705 1144 25 MP stroke
1 10 1 11 1 10 3 11 8 23 11 23 14 22 18 23 
21 23 24 23 28 23 31 23 35 23 38 23 41 23 45 23 
48 23 51 23 54 23 58 23 62 22 64 23 68 23 72 23 
15 5 16 5 17 5 16 5 3 1 3 1 4 1 3 1 
1 0 1 1 1 0 1146 619 36 MP stroke
-12 5 -12 4 -11 5 -12 5 -23 10 -22 9 -22 10 -21 10 
-20 10 -20 10 -20 9 -18 10 -18 10 -18 10 -17 10 -16 9 
-16 10 -15 10 -14 10 -14 10 -13 10 -13 9 -12 10 -11 10 
-11 10 -10 10 -9 9 -9 10 -9 10 -7 10 -7 10 -7 9 
-6 10 -5 10 -4 10 -4 10 -4 9 -3 10 -2 10 -1 10 
-1 4 0 4 -1 4 0 8 2023 1144 45 MP stroke
-16 3 -16 3 -16 3 -16 3 -428 80 -387 81 -346 80 -304 80 
-264 81 -222 80 -181 81 -139 80 -55 41 -44 40 -34 41 -24 40 
-3 8 -3 8 -3 8 -2 8 0 2 -1 2 0 3 3650 1176 24 MP stroke
1 24 6 24 9 24 13 24 47 59 69 59 91 59 114 59 
136 59 158 59 180 59 203 59 72 20 74 19 77 20 79 19 
16 4 16 4 16 4 17 4 3 1 3 1 4 0 3 1 
1 0 1 1 1 0 1146 478 28 MP stroke
-58 14 -58 14 -56 14 -54 14 -159 42 -148 43 -136 42 -124 43 
-114 42 -101 42 -91 43 -78 42 -68 43 -56 42 -44 43 -33 42 
-12 20 -9 20 -6 21 -4 20 -1 4 0 16 2556 1144 23 MP stroke
0 15 3 16 3 15 6 15 12 26 16 26 21 25 24 26 
29 26 34 26 37 25 42 26 46 26 50 26 54 26 59 25 
63 26 67 26 71 26 76 25 15 6 16 5 17 5 16 5 
3 1 3 1 4 1 3 1 1 1 1 0 1 0 1146 645 32 MP stroke
-1 0 -1 0 -42 14 -40 13 -40 13 -38 14 -37 13 -36 13 
-35 13 -34 14 -32 13 -32 13 -30 14 -29 13 -29 13 -26 13 
-26 14 -25 13 -24 13 -22 14 -22 13 -20 13 -19 13 -18 14 
-17 13 -16 13 -14 14 -14 13 -12 13 -11 14 -11 13 -9 13 
-7 13 -7 14 -6 13 -4 13 -4 14 -2 13 0 4 -1 4 
0 12 1939 1144 42 MP stroke
1 1 1 0 1 1 1 0 2 1 1 1 2 1 2 0 
2 1 2 1 1 1 2 1 2 0 2 1 2 1 1 1 
2 1 2 1 2 0 2 1 1 1 2 1 2 1 2 0 
2 1 2 1 2 1 1 1 2 0 2 1 2 1 2 1 
2 1 2 0 2 1 1 1 2 1 2 1 2 0 2 1 
1 0 1 1 1 0 -1 0 1147 770 45 MP stroke
0 6 1 7 0 6 1 7 1 1 0 4 1 1 3650 1112 8 MP stroke
-207 38 -197 37 -189 37 -181 38 -354 79 -313 80 -274 80 -232 79 
-193 80 -152 80 -112 79 -71 80 -12 20 -9 20 -6 21 -4 20 
-1 4 0 8 -1 4 0 4 3654 1144 21 MP stroke
2 27 7 27 12 27 16 28 50 57 71 57 93 58 113 57 
134 58 155 57 177 58 197 57 72 20 74 19 77 20 79 19 
16 4 16 4 16 4 17 4 3 1 3 1 4 0 3 1 
1 0 1 1 1 0 1146 478 28 MP stroke
-78 19 -76 19 -74 18 -72 19 -148 41 -138 41 -127 41 -116 40 
-106 41 -95 41 -84 41 -74 41 -64 41 -52 40 -42 41 -32 41 
-12 20 -9 20 -6 21 -4 20 -1 4 0 16 2556 1144 23 MP stroke
1 22 5 21 7 22 11 22 15 24 19 24 22 24 27 24 
30 25 34 24 37 24 41 24 45 24 49 24 52 25 56 24 
60 24 64 24 67 24 71 24 15 6 16 5 17 5 16 5 
3 1 3 1 4 1 3 1 1 1 1 0 1 0 1146 645 32 MP stroke
-19 6 -20 7 -19 7 -18 6 -33 12 -31 12 -31 11 -30 12 
-28 12 -28 11 -27 12 -27 12 -25 11 -25 12 -23 12 -23 11 
-22 12 -21 12 -20 12 -19 11 -19 12 -17 12 -17 11 -16 12 
-15 12 -14 11 -13 12 -13 12 -11 11 -11 12 -9 12 -9 11 
-8 12 -7 12 -7 11 -5 12 -5 12 -3 11 -3 12 -2 12 
0 4 -1 4 0 12 1939 1144 44 MP stroke
0 6 1 7 0 6 1 7 1 1 0 4 1 1 3650 1112 8 MP stroke
-207 38 -197 37 -189 37 -181 38 -354 79 -313 80 -274 80 -232 79 
-193 80 -152 80 -112 79 -71 80 -12 20 -9 20 -6 21 -4 20 
-1 4 0 8 -1 4 0 4 3654 1144 21 MP stroke
2 27 7 27 12 27 16 28 50 57 71 57 93 58 113 57 
134 58 155 57 177 58 197 57 72 20 74 19 77 20 79 19 
16 4 16 4 16 4 17 4 3 1 3 1 4 0 3 1 
1 0 1 1 1 0 1146 478 28 MP stroke
-78 19 -76 19 -74 18 -72 19 -148 41 -138 41 -127 41 -116 40 
-106 41 -95 41 -84 41 -74 41 -64 41 -52 40 -42 41 -32 41 
-12 20 -9 20 -6 21 -4 20 -1 4 0 16 2556 1144 23 MP stroke
1 22 5 21 7 22 11 22 15 24 19 24 22 24 27 24 
30 25 34 24 37 24 41 24 45 24 49 24 52 25 56 24 
60 24 64 24 67 24 71 24 15 6 16 5 17 5 16 5 
3 1 3 1 4 1 3 1 1 1 1 0 1 0 1146 645 32 MP stroke
-19 6 -20 7 -19 7 -18 6 -33 12 -31 12 -31 11 -30 12 
-28 12 -28 11 -27 12 -27 12 -25 11 -25 12 -23 12 -23 11 
-22 12 -21 12 -20 12 -19 11 -19 12 -17 12 -17 11 -16 12 
-15 12 -14 11 -13 12 -13 12 -11 11 -11 12 -9 12 -9 11 
-8 12 -7 12 -7 11 -5 12 -5 12 -3 11 -3 12 -2 12 
0 4 -1 4 0 12 1939 1144 44 MP stroke
0 7 3694 1137 2 MP stroke
-211 38 -202 38 -193 38 -184 38 -359 80 -319 80 -277 81 -236 80 
-195 80 -154 80 -114 81 -72 80 -11 20 -10 20 -6 21 -4 20 
0 4 -1 4 0 12 3694 1144 20 MP stroke
2 28 8 27 12 28 17 28 52 58 72 58 95 58 115 58 
137 58 159 58 179 57 201 58 72 20 75 19 77 19 79 20 
16 4 16 4 16 3 17 4 3 1 3 1 4 1 3 0 
1 1 1 0 1 0 1146 473 28 MP stroke
-80 19 -79 19 -75 19 -74 19 -150 41 -140 42 -129 41 -118 41 
-107 41 -96 41 -86 41 -75 41 -64 42 -53 41 -43 41 -32 41 
-11 20 -10 20 -6 21 -4 20 0 4 -1 4 0 12 2579 1144 24 MP stroke
1 22 5 22 8 22 10 22 16 24 19 25 23 24 27 24 
31 25 34 24 38 24 42 25 46 24 49 24 54 25 57 24 
61 25 64 24 69 24 72 25 15 5 16 5 17 5 16 5 
3 1 3 1 4 1 3 1 1 1 1 0 1 0 1146 641 32 MP stroke
-20 7 -20 7 -20 6 -19 7 -33 12 -32 12 -31 11 -30 12 
-29 12 -29 12 -27 11 -27 12 -25 12 -25 12 -24 11 -23 12 
-23 12 -21 12 -21 12 -19 11 -19 12 -18 12 -17 12 -16 11 
-15 12 -14 12 -14 12 -12 12 -12 11 -11 12 -9 12 -10 12 
-8 11 -7 12 -6 12 -6 12 -4 12 -4 11 -3 12 -2 12 
0 4 -1 4 0 12 1952 1144 44 MP stroke
0 10 3720 1134 2 MP stroke
-219 39 -210 39 -200 39 -190 39 -359 81 -317 80 -277 80 -236 80 
-195 80 -154 81 -113 80 -72 80 -11 20 -9 20 -7 21 -4 20 
0 4 -1 4 0 12 3720 1144 20 MP stroke
3 29 8 29 13 29 19 29 54 58 74 58 96 58 117 57 
138 58 160 58 180 58 202 57 72 20 75 19 77 19 79 19 
16 4 16 4 16 4 17 4 3 1 3 0 4 1 3 1 
1 0 1 0 1 0 -1 0 1147 470 29 MP stroke
-88 21 -85 21 -83 21 -79 21 -149 41 -138 40 -127 41 -116 41 
-106 41 -96 41 -84 41 -74 41 -64 40 -53 41 -42 41 -31 41 
-12 20 -9 20 -7 21 -4 20 0 8 -1 4 0 8 2594 1144 24 MP stroke
2 24 5 24 9 24 13 24 17 24 20 24 24 24 27 24 
32 24 35 24 38 24 42 24 46 24 50 24 53 24 57 24 
60 24 64 24 68 24 72 24 15 5 16 6 17 5 16 5 
3 1 3 1 4 1 3 1 1 0 1 1 1 0 1146 638 32 MP stroke
-18 7 -18 6 -18 6 -17 6 -30 12 -30 11 -29 11 -28 12 
-27 11 -27 12 -25 11 -25 11 -24 12 -23 11 -23 11 -21 12 
-21 11 -20 11 -19 12 -18 11 -18 11 -16 12 -16 11 -15 11 
-14 12 -13 11 -13 11 -12 12 -10 11 -10 11 -10 12 -8 11 
-8 11 -7 12 -5 11 -6 11 -4 12 -3 11 -3 11 -2 12 
0 4 -1 4 0 12 1960 1144 44 MP stroke
0 10 1 3 0 3 3832 1128 4 MP stroke
-253 44 -241 45 -228 44 -216 45 -357 80 -317 80 -275 80 -235 80 
-195 80 -153 80 -113 80 -71 80 -12 20 -9 20 -7 21 -4 20 
0 8 -1 4 0 8 3833 1144 20 MP stroke
4 35 11 34 19 35 27 34 60 57 81 57 102 57 123 58 
144 57 164 57 185 57 206 57 72 19 75 19 77 19 80 18 
16 4 16 4 16 4 17 3 3 1 3 1 4 1 3 1 
1 0 1 0 1 0 1146 455 28 MP stroke
-118 27 -113 28 -109 27 -104 28 -142 40 -131 39 -122 40 -111 40 
-102 40 -91 40 -81 40 -71 40 -61 39 -51 40 -41 40 -31 40 
-12 20 -9 20 -6 21 -4 20 0 4 -1 4 0 12 2657 1144 24 MP stroke
0 10 1 10 2 10 2 9 7 23 11 23 14 22 17 23 
20 22 24 23 26 23 30 22 34 23 36 23 40 22 43 23 
47 22 49 23 53 23 56 22 60 23 62 23 66 22 70 23 
15 5 16 5 17 5 16 5 3 1 3 1 4 1 3 1 
1 0 1 1 1 0 1146 627 36 MP stroke
-12 5 -11 4 -11 5 -11 5 -23 9 -21 10 -22 10 -20 9 
-20 10 -20 10 -19 10 -18 9 -18 10 -17 10 -17 9 -15 10 
-16 10 -14 9 -15 10 -13 10 -13 10 -12 9 -12 10 -11 10 
-11 9 -10 10 -9 10 -9 9 -8 10 -7 10 -7 10 -7 9 
-5 10 -5 10 -5 9 -4 10 -3 10 -3 9 -2 10 -2 10 
0 4 -1 4 0 12 1996 1144 44 MP stroke
-102 17 -99 18 -98 18 -96 18 -408 80 -367 81 -325 80 -285 81 
-243 80 -202 80 -161 81 -120 80 -38 34 -31 34 -23 33 -16 34 
-3 7 -2 6 -2 7 -1 7 0 1 -1 2 0 2 3769 1171 24 MP stroke
3 30 8 29 14 30 20 30 55 58 77 58 98 59 120 58 
142 59 163 58 185 58 207 59 73 19 74 19 77 19 80 19 
16 4 16 4 16 4 17 4 3 0 3 1 4 1 3 1 
1 0 1 0 1 0 1146 463 28 MP stroke
-89 21 -87 21 -83 20 -81 21 -152 42 -141 41 -130 42 -120 41 
-108 41 -97 42 -87 41 -76 41 -64 42 -54 41 -43 42 -32 41 
-12 20 -9 20 -7 21 -3 20 -1 4 0 4 -1 4 0 8 
2623 1144 25 MP stroke
2 24 6 24 9 24 13 24 16 24 21 25 24 24 28 24 
32 25 36 24 39 24 43 25 47 24 51 24 55 25 58 24 
62 25 66 24 69 24 74 25 15 5 16 5 17 5 16 5 
3 1 3 1 4 1 3 1 1 0 1 1 1 0 1146 633 32 MP stroke
-19 6 -19 7 -19 7 -18 6 -32 12 -31 11 -30 12 -29 11 
-28 12 -28 12 -27 11 -25 12 -25 11 -24 12 -24 11 -22 12 
-21 12 -21 11 -20 12 -19 11 -18 12 -17 11 -17 12 -15 12 
-15 11 -14 12 -13 11 -12 12 -11 11 -11 12 -9 12 -9 11 
-8 12 -7 11 -6 12 -6 12 -4 11 -4 12 -2 11 -2 12 
-1 4 0 8 -1 4 0 4 1977 1144 45 MP stroke
0 11 1 5 0 5 1 2 0 4 3711 1117 6 MP stroke
-222 39 -212 40 -202 40 -192 40 -355 79 -314 80 -275 80 -233 80 
-193 80 -153 79 -112 80 -72 80 -11 20 -9 20 -7 21 -4 20 
0 4 -1 4 0 12 3713 1144 20 MP stroke
3 30 8 29 14 30 20 29 54 58 74 57 96 57 116 58 
137 57 159 58 179 57 200 57 72 19 75 20 77 19 79 19 
16 4 16 4 16 4 17 4 3 1 3 0 4 1 3 1 
1 0 1 0 1 1 1146 470 28 MP stroke
-91 22 -89 22 -85 21 -83 22 -146 41 -135 40 -125 41 -115 40 
-105 41 -93 40 -84 41 -73 40 -62 40 -52 41 -42 40 -31 41 
-12 20 -9 20 -7 21 -4 20 0 8 -1 4 0 8 2590 1144 24 MP stroke
0 7 3 23 6 24 10 23 13 24 17 24 21 23 24 24 
28 24 31 23 35 24 38 24 42 23 46 24 49 24 52 23 
56 24 60 24 63 23 67 24 71 24 15 5 16 5 17 5 
16 5 3 1 3 1 4 1 3 1 1 0 1 1 1 0 
1146 639 33 MP stroke
-16 6 -17 6 -16 6 -16 6 -29 11 -28 11 -27 11 -27 11 
-26 11 -25 11 -24 11 -23 11 -23 11 -22 11 -21 11 -20 11 
-20 11 -19 11 -18 11 -17 11 -16 11 -16 11 -15 11 -14 11 
-14 12 -12 11 -12 11 -11 11 -10 11 -10 11 -9 11 -8 11 
-7 11 -6 11 -6 11 -5 11 -4 11 -3 11 -3 11 -2 11 
0 4 -1 4 0 12 1958 1144 44 MP stroke
gr

2436 2358 mt 
(a) s
 319 1172 mt  -90 rotate
(b) s
90 rotate

end %%Color Dict

eplot
%%EndObject

epage
end

showpage

%%Trailer
%%EOF
